prs_du_3
…
2025-05-28

Úloha 1

Načteme data z databáze Eurostat

raw_data <- get_eurostat("nama_10_fte")

## indexed 0B in  0s, 0B/sindexed 1.00TB in  0s, 3.05PB/s                                                                              

## Table nama_10_fte cached at /var/folders/4n/d5s3tmx54ms5yzns5vlvhz280000gn/T//RtmppgQYpY/eurostat/fe855c757ed43ef4aed47c79ac1d13d5.rds

raw_data

## # A tibble: 1,504 × 5
##    freq  unit  geo   TIME_PERIOD values
##    <chr> <chr> <chr> <date>       <dbl>
##  1 A     EUR   AT    1995-01-01   26543
##  2 A     EUR   AT    1996-01-01   26522
##  3 A     EUR   AT    1997-01-01   25943
##  4 A     EUR   AT    1998-01-01   26863
##  5 A     EUR   AT    1999-01-01   27714
##  6 A     EUR   AT    2000-01-01   28415
##  7 A     EUR   AT    2001-01-01   28890
##  8 A     EUR   AT    2002-01-01   29752
##  9 A     EUR   AT    2003-01-01   30237
## 10 A     EUR   AT    2004-01-01   31455
## # ℹ 1,494 more rows
…
## Warning: There was 1 warning in `mutate()`.
## ℹ In argument: `geo = case_when(...)`.
## Caused by warning:
## ! Some values were not matched unambiguously: EA20, EU27_2020

data

## # A tibble: 28 × 2
##    geo              salary
##    <chr>             <dbl>
##  1 Austria           42876
##  2 Belgium           45076
##  3 Bulgaria           6767
##  4 Cyprus            20759
##  5 Czechia           13141
##  6 Germany           40902
##  7 Denmark           57612
##  8 Euro area (EA20)  34411
##  9 Estonia           14540
## 10 Greece            16540
## # ℹ 18 more rows
…
edu_raw

## # A tibble: 4,266 × 6
##    freq  unit  isced11 geo   TIME_PERIOD values
##    <chr> <chr> <chr>   <chr> <date>       <dbl>
##  1 A     PC    ED0     AT    2013-01-01     3.2
##  2 A     PC    ED0     AT    2014-01-01     3.3
##  3 A     PC    ED0     AT    2015-01-01     3.4
##  4 A     PC    ED0     AT    2016-01-01     3.5
##  5 A     PC    ED0     AT    2017-01-01     3.5
##  6 A     PC    ED0     AT    2018-01-01     3.6
##  7 A     PC    ED0     AT    2019-01-01     3.6
##  8 A     PC    ED0     AT    2020-01-01     3.7
##  9 A     PC    ED0     AT    2021-01-01     3.7
## 10 A     PC    ED0     AT    2022-01-01     3.7
## # ℹ 4,256 more rows
…
edu_data <- edu_data %>%
  select(-higher, -total)

edu_data

## # A tibble: 31 × 2
##    geo         tertiary_edu
##    <chr>              <dbl>
##  1 Austria            0.246
##  2 Belgium            0.162
##  3 Bulgaria           0.217
##  4 Switzerland        0.188
##  5 Cyprus             0.220
##  6 Czechia            0.174
##  7 Germany            0.176
##  8 Denmark            0.195
##  9 Estonia            0.173
## 10 Spain              0.192
## # ℹ 21 more rows
…
